/Users/rob/.julia/dev/BHAtp/examples
WOB: 40, Incl: 40
Dalpha: 2.718509349533837
Errors (1): 3.449642816241964
Errors (100): 0.03983185804177692
Errors (1000): 0.0011448488816971757
Errors (5000): 7.609795245821588e-7
Errors (7449): 9.999590299394076e-8

WOB: 40000.0, Incl: 40.0
Force on bit: 924.39853
New dalpha: 0.5
Errors (1): 3.4277645103725467
Errors (100): 0.039768783746977426
Errors (1000): 0.0011057871616670543
Errors (5000): 7.541367763493042e-7
Errors (7399): 9.998087951793056e-8

WOB: 40000.0, Incl: 40.0
Force on bit: 773.20901
New dalpha: 3.057085338983813
Errors (1): 3.3998364668095373
Errors (100): 0.042225309411027576
Errors (1000): 0.0011091100275962926
Errors (5000): 7.873969998777386e-7
Errors (7457): 9.993784586128323e-8

WOB: 40000.0, Incl: 40.0
Force on bit: -32.97926
New dalpha: 2.9524810109692967
Errors (1): 3.3980438087795948
Errors (100): 0.04208899942536175
Errors (1000): 0.0011024443766349242
Errors (5000): 7.835840361245292e-7
Errors (7445): 9.994128427659633e-8

WOB: 40000.0, Incl: 40.0
Force on bit: 8.53413
New dalpha: 2.973985083121403
Errors (1): 3.397970164568368
Errors (100): 0.0421171387038214
Errors (1000): 0.0011036262265104618
Errors (5000): 7.843548360031326e-7
Errors (7447): 9.997497687477129e-8
